{
	"info": {
		"_postman_id": "84902d55-5ef5-4858-9c08-62268be2d3bb",
		"name": "CityLib Evolution",
		"schema": "https://schema.getpostman.com/json/collection/v2.1.0/collection.json"
	},
	"item": [
		{
			"name": "Books",
			"item": [
				{
					"name": "Author",
					"item": [
						{
							"name": "New Author",
							"request": {
								"method": "POST",
								"header": [],
								"url": {
									"raw": "http://localhost:8081/api/author?name=Alistair&surname=Delacroix&birthDate=05/06/1812",
									"protocol": "http",
									"host": [
										"localhost"
									],
									"port": "8081",
									"path": [
										"api",
										"author"
									],
									"query": [
										{
											"key": "name",
											"value": "Alistair"
										},
										{
											"key": "surname",
											"value": "Delacroix"
										},
										{
											"key": "birthDate",
											"value": "05/06/1812"
										}
									]
								}
							},
							"response": []
						},
						{
							"name": "Get Author",
							"request": {
								"method": "GET",
								"header": [],
								"url": {
									"raw": "http://localhost:8081/api/author/52",
									"protocol": "http",
									"host": [
										"localhost"
									],
									"port": "8081",
									"path": [
										"api",
										"author",
										"52"
									]
								}
							},
							"response": []
						},
						{
							"name": "Delete Author",
							"request": {
								"method": "DELETE",
								"header": [],
								"url": {
									"raw": "http://localhost:8081/api/author/52",
									"protocol": "http",
									"host": [
										"localhost"
									],
									"port": "8081",
									"path": [
										"api",
										"author",
										"52"
									]
								}
							},
							"response": []
						},
						{
							"name": "Modify Author",
							"request": {
								"method": "PUT",
								"header": [],
								"url": {
									"raw": "http://localhost:8081/api/author/52?name=Alist&surname=Croix&birthDate=16/05/1986",
									"protocol": "http",
									"host": [
										"localhost"
									],
									"port": "8081",
									"path": [
										"api",
										"author",
										"52"
									],
									"query": [
										{
											"key": "name",
											"value": "Alist"
										},
										{
											"key": "surname",
											"value": "Croix"
										},
										{
											"key": "birthDate",
											"value": "16/05/1986"
										}
									]
								}
							},
							"response": []
						}
					],
					"protocolProfileBehavior": {},
					"_postman_isSubFolder": true
				},
				{
					"name": "Books",
					"item": [
						{
							"name": "Get single Book",
							"request": {
								"method": "GET",
								"header": [],
								"url": {
									"raw": "http://localhost:8081/api/books/18",
									"protocol": "http",
									"host": [
										"localhost"
									],
									"port": "8081",
									"path": [
										"api",
										"books",
										"18"
									]
								}
							},
							"response": []
						},
						{
							"name": "Delete Book",
							"request": {
								"method": "DELETE",
								"header": [],
								"url": {
									"raw": "http://localhost:8081/api/books/18",
									"protocol": "http",
									"host": [
										"localhost"
									],
									"port": "8081",
									"path": [
										"api",
										"books",
										"18"
									]
								}
							},
							"response": []
						},
						{
							"name": "Get Books",
							"request": {
								"method": "GET",
								"header": [],
								"url": {
									"raw": "http://localhost:8081/api/books",
									"protocol": "http",
									"host": [
										"localhost"
									],
									"port": "8081",
									"path": [
										"api",
										"books"
									]
								}
							},
							"response": []
						},
						{
							"name": "New Book",
							"request": {
								"method": "POST",
								"header": [],
								"url": {
									"raw": "http://localhost:8081/api/books?title=NewBook&description=random%20desc&availableQty=0&releaseDate=06%2F09%2F2011&authorId=1&publisherId=1",
									"protocol": "http",
									"host": [
										"localhost"
									],
									"port": "8081",
									"path": [
										"api",
										"books"
									],
									"query": [
										{
											"key": "title",
											"value": "NewBook"
										},
										{
											"key": "description",
											"value": "random%20desc"
										},
										{
											"key": "availableQty",
											"value": "0"
										},
										{
											"key": "releaseDate",
											"value": "06%2F09%2F2011"
										},
										{
											"key": "authorId",
											"value": "1"
										},
										{
											"key": "publisherId",
											"value": "1"
										}
									]
								}
							},
							"response": []
						},
						{
							"name": "New Book Copy",
							"request": {
								"method": "PUT",
								"header": [],
								"url": {
									"raw": "http://localhost:8081/api/books/56?title=NewBook&description=Random desc&availableQty=0&releaseDate=06/09/2011&authorId=1&publisherId=1",
									"protocol": "http",
									"host": [
										"localhost"
									],
									"port": "8081",
									"path": [
										"api",
										"books",
										"56"
									],
									"query": [
										{
											"key": "title",
											"value": "NewBook"
										},
										{
											"key": "description",
											"value": "Random desc"
										},
										{
											"key": "availableQty",
											"value": "0"
										},
										{
											"key": "releaseDate",
											"value": "06/09/2011"
										},
										{
											"key": "authorId",
											"value": "1"
										},
										{
											"key": "publisherId",
											"value": "1"
										}
									]
								}
							},
							"response": []
						}
					],
					"protocolProfileBehavior": {},
					"_postman_isSubFolder": true
				},
				{
					"name": "Publisher",
					"item": [
						{
							"name": "Get Publisher",
							"request": {
								"method": "GET",
								"header": [],
								"url": {
									"raw": "http://localhost:8081/api/publisher/1",
									"protocol": "http",
									"host": [
										"localhost"
									],
									"port": "8081",
									"path": [
										"api",
										"publisher",
										"1"
									]
								}
							},
							"response": []
						},
						{
							"name": "New Publisher",
							"request": {
								"method": "POST",
								"header": [],
								"url": {
									"raw": "http://localhost:8081/api/publisher?name=Beyond",
									"protocol": "http",
									"host": [
										"localhost"
									],
									"port": "8081",
									"path": [
										"api",
										"publisher"
									],
									"query": [
										{
											"key": "name",
											"value": "Beyond"
										}
									]
								}
							},
							"response": []
						},
						{
							"name": "Modify Publisher",
							"request": {
								"method": "PUT",
								"header": [],
								"url": {
									"raw": "http://localhost:8081/api/publisher/1?name=newName",
									"protocol": "http",
									"host": [
										"localhost"
									],
									"port": "8081",
									"path": [
										"api",
										"publisher",
										"1"
									],
									"query": [
										{
											"key": "name",
											"value": "newName"
										}
									]
								}
							},
							"response": []
						},
						{
							"name": "Delete Publisher",
							"request": {
								"method": "DELETE",
								"header": [],
								"url": {
									"raw": "http://localhost:8081/api/publisher/54",
									"protocol": "http",
									"host": [
										"localhost"
									],
									"port": "8081",
									"path": [
										"api",
										"publisher",
										"54"
									]
								}
							},
							"response": []
						}
					],
					"protocolProfileBehavior": {},
					"_postman_isSubFolder": true
				}
			],
			"protocolProfileBehavior": {}
		},
		{
			"name": "BatchMailer",
			"item": [
				{
					"name": "Confirm Account Email",
					"request": {
						"method": "GET",
						"header": [],
						"url": {
							"raw": "http://localhost:8083/api/emailbatch/confirmAccount?authString=fgdhfghdgfdgdfghdfgs&recipient=citylib_user5@yopmail.com",
							"protocol": "http",
							"host": [
								"localhost"
							],
							"port": "8083",
							"path": [
								"api",
								"emailbatch",
								"confirmAccount"
							],
							"query": [
								{
									"key": "authString",
									"value": "fgdhfghdgfdgdfghdfgs"
								},
								{
									"key": "recipient",
									"value": "citylib_user5@yopmail.com"
								}
							]
						}
					},
					"response": []
				},
				{
					"name": "Reservation Alert Email",
					"request": {
						"method": "GET",
						"header": [],
						"url": {
							"raw": "http://localhost:8083/api/emailbatch/reservationAlert?userId=5&bookId=1&libraryId=1",
							"protocol": "http",
							"host": [
								"localhost"
							],
							"port": "8083",
							"path": [
								"api",
								"emailbatch",
								"reservationAlert"
							],
							"query": [
								{
									"key": "userId",
									"value": "5"
								},
								{
									"key": "bookId",
									"value": "1"
								},
								{
									"key": "libraryId",
									"value": "1"
								}
							]
						}
					},
					"response": []
				},
				{
					"name": "Reservation Supressed Email",
					"request": {
						"method": "GET",
						"header": [],
						"url": {
							"raw": "http://localhost:8083/api/emailbatch/reservationSupressed?userId=1&bookId=1",
							"protocol": "http",
							"host": [
								"localhost"
							],
							"port": "8083",
							"path": [
								"api",
								"emailbatch",
								"reservationSupressed"
							],
							"query": [
								{
									"key": "userId",
									"value": "1"
								},
								{
									"key": "bookId",
									"value": "1"
								}
							]
						}
					},
					"response": []
				}
			],
			"protocolProfileBehavior": {}
		},
		{
			"name": "Library",
			"item": [
				{
					"name": "BatchOps",
					"item": [
						{
							"name": "reservationAlertsToBeSent",
							"request": {
								"method": "GET",
								"header": [],
								"url": {
									"raw": "localhost:8082/api/library/batchOps/reservationAlertsToBeSent",
									"host": [
										"localhost"
									],
									"port": "8082",
									"path": [
										"api",
										"library",
										"batchOps",
										"reservationAlertsToBeSent"
									]
								}
							},
							"response": []
						},
						{
							"name": "getPastDueDate",
							"request": {
								"method": "GET",
								"header": [],
								"url": {
									"raw": "http://localhost:8082/api/library/batchOps/pastDueDate",
									"protocol": "http",
									"host": [
										"localhost"
									],
									"port": "8082",
									"path": [
										"api",
										"library",
										"batchOps",
										"pastDueDate"
									]
								}
							},
							"response": []
						},
						{
							"name": "notifyReservation",
							"request": {
								"method": "GET",
								"header": [],
								"url": {
									"raw": "http://localhost:8082/api/library/batchOps/reservationNotified?reservationId=1001",
									"protocol": "http",
									"host": [
										"localhost"
									],
									"port": "8082",
									"path": [
										"api",
										"library",
										"batchOps",
										"reservationNotified"
									],
									"query": [
										{
											"key": "reservationId",
											"value": "1001"
										}
									]
								}
							},
							"response": []
						}
					],
					"protocolProfileBehavior": {},
					"_postman_isSubFolder": true
				},
				{
					"name": "Default",
					"item": [
						{
							"name": "ExtendRentedCopy",
							"request": {
								"method": "GET",
								"header": [],
								"url": {
									"raw": "localhost:8082/api/library/extendRentedCopy?rentedCopyId=3",
									"host": [
										"localhost"
									],
									"port": "8082",
									"path": [
										"api",
										"library",
										"extendRentedCopy"
									],
									"query": [
										{
											"key": "rentedCopyId",
											"value": "3"
										}
									]
								}
							},
							"response": []
						},
						{
							"name": "Get Library",
							"request": {
								"method": "GET",
								"header": [],
								"url": {
									"raw": "http://localhost:8082/api/library/1",
									"protocol": "http",
									"host": [
										"localhost"
									],
									"port": "8082",
									"path": [
										"api",
										"library",
										"1"
									]
								}
							},
							"response": []
						},
						{
							"name": "Get Copy list for Book",
							"request": {
								"method": "GET",
								"header": [],
								"url": {
									"raw": "http://localhost:8082/api/library/copyListByBook/1",
									"protocol": "http",
									"host": [
										"localhost"
									],
									"port": "8082",
									"path": [
										"api",
										"library",
										"copyListByBook",
										"1"
									]
								}
							},
							"response": []
						},
						{
							"name": "Get Library List",
							"request": {
								"method": "GET",
								"header": [],
								"url": {
									"raw": "http://localhost:8082/api/library/libraryList",
									"protocol": "http",
									"host": [
										"localhost"
									],
									"port": "8082",
									"path": [
										"api",
										"library",
										"libraryList"
									]
								}
							},
							"response": []
						},
						{
							"name": "User's rented copy list",
							"request": {
								"method": "GET",
								"header": [],
								"url": {
									"raw": "http://localhost:8082/api/library/rentedCopiesList?userId=4",
									"protocol": "http",
									"host": [
										"localhost"
									],
									"port": "8082",
									"path": [
										"api",
										"library",
										"rentedCopiesList"
									],
									"query": [
										{
											"key": "userId",
											"value": "4"
										}
									]
								}
							},
							"response": []
						},
						{
							"name": "Rent Copy",
							"request": {
								"method": "GET",
								"header": [],
								"url": {
									"raw": ""
								}
							},
							"response": []
						},
						{
							"name": "Return Copy",
							"request": {
								"method": "PUT",
								"header": [],
								"url": {
									"raw": "http://localhost:8082/api/library/returnCopy?rentedCopyId=1006&userId=1",
									"protocol": "http",
									"host": [
										"localhost"
									],
									"port": "8082",
									"path": [
										"api",
										"library",
										"returnCopy"
									],
									"query": [
										{
											"key": "rentedCopyId",
											"value": "1006"
										},
										{
											"key": "userId",
											"value": "1"
										}
									]
								}
							},
							"response": []
						}
					],
					"protocolProfileBehavior": {},
					"_postman_isSubFolder": true
				},
				{
					"name": "Reservation",
					"item": [
						{
							"name": "BookReservationCount",
							"request": {
								"method": "GET",
								"header": [],
								"url": {
									"raw": "localhost:8082/api/library/reservation/bookReservationsCount?bookId=18",
									"host": [
										"localhost"
									],
									"port": "8082",
									"path": [
										"api",
										"library",
										"reservation",
										"bookReservationsCount"
									],
									"query": [
										{
											"key": "bookId",
											"value": "18"
										}
									]
								}
							},
							"response": []
						},
						{
							"name": "newBookReservation",
							"request": {
								"method": "GET",
								"header": [],
								"url": {
									"raw": "localhost:8082/api/library/reservation/newBookReservation?bookId=18&libraryId=3&userId=2",
									"host": [
										"localhost"
									],
									"port": "8082",
									"path": [
										"api",
										"library",
										"reservation",
										"newBookReservation"
									],
									"query": [
										{
											"key": "bookId",
											"value": "18"
										},
										{
											"key": "libraryId",
											"value": "3"
										},
										{
											"key": "userId",
											"value": "2"
										}
									]
								}
							},
							"response": []
						},
						{
							"name": "cancelReservation",
							"request": {
								"method": "GET",
								"header": [],
								"url": {
									"raw": "http://localhost:8082/api/library/reservation/cancelBookReservation?reservationId=1005",
									"protocol": "http",
									"host": [
										"localhost"
									],
									"port": "8082",
									"path": [
										"api",
										"library",
										"reservation",
										"cancelBookReservation"
									],
									"query": [
										{
											"key": "reservationId",
											"value": "1005"
										}
									]
								}
							},
							"response": []
						},
						{
							"name": "userReservations",
							"request": {
								"method": "GET",
								"header": [],
								"url": {
									"raw": "http://localhost:8082/api/library/reservation/getUserBookReservations?userId=4",
									"protocol": "http",
									"host": [
										"localhost"
									],
									"port": "8082",
									"path": [
										"api",
										"library",
										"reservation",
										"getUserBookReservations"
									],
									"query": [
										{
											"key": "userId",
											"value": "4"
										}
									]
								}
							},
							"response": []
						},
						{
							"name": "userHasReservation",
							"request": {
								"method": "GET",
								"header": [],
								"url": {
									"raw": "http://localhost:8082/api/library/reservation/userHasReservation?userId=4&bookId=18",
									"protocol": "http",
									"host": [
										"localhost"
									],
									"port": "8082",
									"path": [
										"api",
										"library",
										"reservation",
										"userHasReservation"
									],
									"query": [
										{
											"key": "userId",
											"value": "4"
										},
										{
											"key": "bookId",
											"value": "18"
										}
									]
								}
							},
							"response": []
						}
					],
					"protocolProfileBehavior": {},
					"_postman_isSubFolder": true
				}
			],
			"protocolProfileBehavior": {}
		}
	],
	"protocolProfileBehavior": {}
}